<?xml version="1.0" encoding="utf-8"?>
<COLLADA xmlns="http://www.collada.org/2005/11/COLLADASchema" version="1.4.1">
	<asset>
		<contributor>
			<authoring_tool>PlayUp</authoring_tool>							
		</contributor>
		<created>2012-06-25T10:02:38Z</created> 										
		<modified>2012-06-25T10:02:38Z</modified>										
		<revision>1.4.1</revision>
		<unit meter="1.0" name="meter"></unit>
	</asset>
	<library_images>
		<image id="concrete_tga_img" format="bitmap" height="64" width="64" depth="32">
			<init_from>PlayUp/Objects/Materials/Textures/concrete.tga</init_from>
		</image>
		<image id="tip3d_tga_img" format="bitmap" height="512" width="512" depth="32">
			<init_from>PlayUp/Objects/Materials/Textures/tip3d.tga</init_from>
		</image>
	</library_images>
	<library_effects>
		<effect id="segment-curve-1-concrete_fx">								
			<profile_COMMON>
				<newparam sid="concrete_tga_surface">
					<surface type="2D">
						<init_from>concrete_tga_img</init_from>
					</surface>
				</newparam>
				<newparam sid="concrete_tga_sampler">
					<sampler2D>
						<source>concrete_tga_surface</source>
					</sampler2D>
				</newparam>
				<technique sid="default">
					<phong>
						<emission>
							<color sid="emission">0.000000 0.000000 0.000000 1.000000</color>
						</emission>
						<ambient>
							<color sid="ambient">0.000000 0.000000 0.000000 1.000000</color>
						</ambient>
						<diffuse>
							<texture texture="concrete_tga_sampler" texcoord="diffuse_TEXCOORD"></texture> RARRR~!~
						</diffuse>
						<specular>
							<color sid="specular">0.000000 0.000000 0.000000 1.000000</color>
						</specular>
						<shininess>
							<float sid="shininess">0.000000</float>
						</shininess>
						<reflective>
							<color sid="reflective">0.000000 0.000000 0.000000 1.000000</color>
						</reflective>
						<reflectivity>
							<float sid="reflectivity">0.000000</float>
						</reflectivity>
						<transparent opaque="RGB_ZERO">
							<color sid="transparent">0.000000 0.000000 0.000000 0.000000</color>
						</transparent>
						<transparency>
							<float sid="transparency">0.000000</float>
						</transparency>
						<index_of_refraction>
							<float sid="index_of_refraction">0.000000</float>
						</index_of_refraction>
					</phong>
				</technique>
			</profile_COMMON>
		</effect>
		<effect id="segment-curve-2-tip3d_fx">								
			<profile_COMMON>
				<newparam sid="tip3d_tga_surface">
					<surface type="2D">
						<init_from>tip3d_tga_img</init_from>
					</surface>
				</newparam>
				<newparam sid="tip3d_tga_sampler">
					<sampler2D>
						<source>tip3d_tga_surface</source>
					</sampler2D>
				</newparam>
				<technique sid="default">
					<phong>
						<emission>
							<color sid="emission">0.000000 0.000000 0.000000 1.000000</color>
						</emission>
						<ambient>
							<color sid="ambient">0.000000 0.000000 0.000000 1.000000</color>
						</ambient>
						<diffuse>
							<texture texture="tip3d_tga_sampler" texcoord="diffuse_TEXCOORD"></texture> RARRR~!~
						</diffuse>
						<specular>
							<color sid="specular">0.000000 0.000000 0.000000 1.000000</color>
						</specular>
						<shininess>
							<float sid="shininess">0.000000</float>
						</shininess>
						<reflective>
							<color sid="reflective">0.000000 0.000000 0.000000 1.000000</color>
						</reflective>
						<reflectivity>
							<float sid="reflectivity">0.000000</float>
						</reflectivity>
						<transparent opaque="RGB_ZERO">
							<color sid="transparent">0.000000 0.000000 0.000000 0.000000</color>
						</transparent>
						<transparency>
							<float sid="transparency">0.000000</float>
						</transparency>
						<index_of_refraction>
							<float sid="index_of_refraction">0.000000</float>
						</index_of_refraction>
					</phong>
				</technique>
			</profile_COMMON>
		</effect>

	</library_effects>
	<library_materials>
		<material id="segment-curve-1-concrete">									
			<instance_effect url="#segment-curve-1-concrete_fx"></instance_effect>	
		</material>
		<material id="segment-curve-2-tip3d">									
			<instance_effect url="#segment-curve-2-tip3d_fx"></instance_effect>	
		</material>
	</library_materials>
	<library_geometries>
		<geometry id="geometries_0">												
			<mesh>
				<source id="geometries_0-Pos">											
					<float_array id="geometries_0-Pos-array" count="318">				
						9.25974851452366 0.2 -13.8581929876693
						11.1177143234622 -0.5 -14.488887394336
						9.25974851452366 -0.5 -13.8581929876693
						11.1177143234622 0.2 -14.488887394336
						13.0421071166992 -0.5 -14.8716729206072
						13.0421071166992 0.2 -14.8716729206072
						15.0 -0.5 -15.0
						15.0 0.0 -12.5
						15.0 -0.5 -12.5
						15.0 0.2 -12.5
						15.0 0.2 -15.0
						7.5 0.2 -12.9903810567666
						7.5 -0.5 -12.9903810567666
						5.86857856486919 0.2 -11.9003001043685
						5.86857856486919 -0.5 -11.9003001043685
						4.39339828220179 0.2 -10.6066017177982
						4.39339828220179 -0.5 -10.6066017177982
						6.16116523516816 0.0 -8.83883476483184
						5.08308324635956 0.2 -7.60951786260901
						5.08308324635956 0.0 -7.60951786260901
						6.16116523516816 0.2 -8.83883476483184
						4.17468245269452 0.2 -6.25
						4.17468245269452 0.0 -6.25
						3.45150584360892 0.2 -4.78354290456362
						3.45150584360892 0.0 -4.78354290456362
						2.92592717138665 0.2 -3.23523806378151
						2.92592717138665 0.0 -3.23523806378151
						2.60693923282737 0.2 -1.63157740275064
						2.60693923282737 0.0 -1.63157740275064
						2.5 0.2 -0.0
						2.5 0.0 -0.0
						0.0 -0.5 -0.0
						2.5 -0.5 -0.0
						0.0 0.2 -0.0
						0.12832707939284 0.2 -1.95789288330078
						0.12832707939284 -0.5 -1.95789288330078
						0.511112605663976 0.2 -3.88228567653783
						0.511112605663976 -0.5 -3.88228567653783
						1.1418070123307 0.2 -5.74025148547636
						1.1418070123307 -0.5 -5.74025148547636
						2.00961894323342 0.2 -7.5
						2.00961894323342 -0.5 -7.5
						3.09969989563147 -0.5 -9.13142143513081
						3.09969989563147 0.2 -9.13142143513081
						13.3684225972494 0.2 -12.3930607671726
						11.7647619362185 0.0 -12.0740728286134
						13.3684225972494 0.0 -12.3930607671726
						11.7647619362185 0.2 -12.0740728286134
						10.2164570954364 0.0 -11.5484941563911
						10.2164570954364 0.2 -11.5484941563911
						8.75 0.0 -10.8253175473055
						8.75 0.2 -10.8253175473055
						7.39048213739099 0.0 -9.91691675364044
						7.39048213739099 0.2 -9.91691675364044
						15.0 0.199999999999996 -0.0
						12.5 -0.5 -0.0
						15.0 -0.500000000000002 -0.0
						12.5 0.0 -0.0
						12.5 0.199999999999997 -0.0
						15.0 -0.5 -2.5
						15.0 0.199999999999997 -2.5
						14.6736845194499 0.199999999999997 -2.47861215343453
						15.0 0.0 -2.5
						14.6736845194499 0.0 -2.47861215343453
						14.3529523872437 0.199999999999997 -2.41481456572268
						14.3529523872437 0.0 -2.41481456572268
						14.0432914190873 0.199999999999997 -2.30969883127822
						14.0432914190873 0.0 -2.30969883127822
						13.75 0.199999999999997 -2.16506350946112
						13.75 0.0 -2.16506350946112
						13.4780964274782 0.199999999999997 -1.98338335072809
						13.4780964274782 0.0 -1.98338335072809
						13.2322330470336 0.199999999999997 -1.76776695296637
						13.2322330470336 0.0 -1.76776695296637
						13.0166166492719 0.0 -1.52190357252181
						13.0166166492719 0.199999999999997 -1.52190357252181
						12.8349364905389 0.0 -1.25
						12.8349364905389 0.199999999999997 -1.25
						12.6903011687218 0.0 -0.956708580912724
						12.6903011687218 0.199999999999997 -0.956708580912724
						12.5851854342773 0.0 -0.647047612756308
						12.5851854342773 0.199999999999997 -0.647047612756308
						12.5213878465655 0.0 -0.326315480550131
						12.5213878465655 0.199999999999997 -0.326315480550131
						2.60693923282737 -0.5 -1.63157740275064
						2.92592717138665 -0.5 -3.23523806378151
						3.45150584360892 -0.5 -4.78354290456362
						4.17468245269452 -0.5 -6.25
						5.08308324635956 -0.5 -7.60951786260901
						6.16116523516816 -0.5 -8.83883476483184
						7.39048213739099 -0.5 -9.91691675364044
						8.75 -0.5 -10.8253175473055
						10.2164570954364 -0.5 -11.5484941563911
						11.7647619362185 -0.5 -12.0740728286134
						12.5213878465655 -0.5 -0.326315480550131
						13.3684225972494 -0.5 -12.3930607671726
						12.5851854342773 -0.5 -0.647047612756308
						12.6903011687218 -0.5 -0.956708580912724
						12.8349364905389 -0.5 -1.25
						13.0166166492719 -0.5 -1.52190357252181
						13.2322330470336 -0.5 -1.76776695296637
						13.4780964274782 -0.5 -1.98338335072809
						13.75 -0.5 -2.16506350946112
						14.0432914190873 -0.5 -2.30969883127822
						14.3529523872437 -0.5 -2.41481456572268
						14.6736845194499 -0.5 -2.47861215343453
					</float_array>
					<technique_common>
						<accessor source="#geometries_0-Pos-array" count="106" stride="3"> 	
							<param name="X" type="float"/>
							<param name="Y" type="float"/>
							<param name="Z" type="float"/>
						</accessor>
					</technique_common>
				</source>
				<source id="geometries_0-Normal">									
					<float_array id="geometries_0-Normal-array" count="192">			
						-0.008165 0.024052 0.000000
						-0.004955 0.024912 0.000000
						0.025400 0.000000 0.000000
						-0.011234 0.022781 0.000000
						-0.014111 0.021119 0.000000
						-0.001661 0.025346 0.000000
						-0.016747 0.019097 0.000000
						0.019097 -0.016747 0.000000
						0.021119 -0.014111 0.000000
						0.022781 -0.011234 0.000000
						0.024052 -0.008165 0.000000
						0.024912 -0.004955 0.000000
						0.025346 -0.001661 0.000000
						0.000000 -0.025400 0.000000
						-0.025346 0.001661 0.000000
						-0.024912 0.004955 0.000000
						-0.024052 0.008165 0.000000
						-0.022781 0.011234 0.000000
						-0.019097 0.016747 0.000000
						-0.021119 0.014111 0.000000
						0.004955 -0.024912 0.000000
						0.001661 -0.025346 0.000000
						0.008165 -0.024052 0.000000
						0.011234 -0.022781 0.000000
						0.014111 -0.021119 0.000000
						0.016747 -0.019097 0.000000
						0.000000 -0.025400 -0.000000
						-0.001661 0.025346 0.000000
						-0.004955 0.024912 0.000000
						-0.008165 0.024052 0.000000
						-0.011234 0.022781 0.000000
						-0.014111 0.021119 0.000000
						-0.016747 0.019097 0.000000
						-0.019097 0.016747 0.000000
						-0.021119 0.014111 0.000000
						-0.022781 0.011234 0.000000
						-0.024052 0.008165 0.000000
						-0.024912 0.004955 0.000000
						-0.025346 0.001661 0.000000
						-0.000000 0.000000 -0.025400
						0.001661 -0.025346 0.000000
						-0.024052 0.008165 0.000000
						-0.024912 0.004955 0.000000
						-0.025346 0.001661 0.000000
						-0.000000 0.000000 -0.025400
						-0.025346 0.001661 0.000000
						-0.024912 0.004955 0.000000
						-0.024052 0.008165 0.000000
						-0.022781 0.011234 0.000000
						-0.021119 0.014111 0.000000
						-0.019097 0.016747 0.000000
						-0.016747 0.019097 0.000000
						-0.014111 0.021119 0.000000
						-0.011234 0.022781 0.000000
						-0.008165 0.024052 0.000000
						-0.004955 0.024912 0.000000
						-0.000000 0.000000 -0.025400
						0.004955 -0.024912 0.000000
						0.008165 -0.024052 0.000000
						0.011234 -0.022781 0.000000
						0.014111 -0.021119 0.000000
						0.019097 -0.016747 0.000000
						0.021119 -0.014111 0.000000
						0.022781 -0.011234 0.000000
					</float_array>
					<technique_common>
						<accessor source="#geometries_0-Normal-array" count="64" stride="3">	
							<param name="X" type="float"/>
							<param name="Y" type="float"/>
							<param name="Z" type="float"/>
						</accessor>
					</technique_common>
				</source>
				<source id="geometries_0-Texture_Projection">
					<float_array id="geometries_0-Texture_Projection-array" count="598">
						-0.881527 0.013333
						-1.012333 -0.033333
						-0.881527 -0.033333
						-1.012333 0.013333
						-0.915382 0.013333
						-1.046188 -0.033333
						-0.915382 -0.033333
						-1.046188 0.013333
						1.000000 -0.033333
						0.833333 0.000000
						0.833333 -0.033333
						0.833333 0.013333
						1.000000 0.013333
						-0.831470 0.013333
						-0.962276 -0.033333
						-0.831470 -0.033333
						-0.962276 0.013333
						-0.766066 0.013333
						-0.896873 -0.033333
						-0.766066 -0.033333
						-0.896873 0.013333
						-0.932456 0.013333
						-1.063262 -0.033333
						-0.932456 -0.033333
						-1.063262 0.013333
						-0.686437 0.013333
						-0.817243 -0.033333
						-0.686437 -0.033333
						-0.817243 0.013333
						0.713848 0.000000
						0.604843 0.013333
						0.604843 0.000000
						0.713848 0.013333
						0.610073 0.000000
						0.501068 0.013333
						0.501068 0.000000
						0.610073 0.013333
						0.496791 0.000000
						0.387786 0.013333
						0.387786 0.000000
						0.496791 0.013333
						0.375942 0.000000
						0.266937 0.013333
						0.266937 0.000000
						0.375942 0.013333
						0.249593 0.000000
						0.140588 0.013333
						0.140588 0.000000
						0.249593 0.013333
						0.119906 0.000000
						0.010901 0.013333
						0.010901 0.000000
						0.119906 0.013333
						0.166667 0.000000
						0.000000 -0.033333
						0.166667 -0.033333
						0.000000 0.013333
						0.166667 0.013333
						-0.130806 0.013333
						-0.130806 -0.033333
						-0.260493 0.013333
						-0.129687 -0.033333
						-0.129687 0.013333
						-0.260493 -0.033333
						-0.386843 0.013333
						-0.256036 -0.033333
						-0.256036 0.013333
						-0.386843 -0.033333
						-0.507692 0.013333
						-0.376886 -0.033333
						-0.376886 0.013333
						-0.507692 -0.033333
						-0.724749 0.013333
						-0.593943 -0.033333
						-0.593943 0.013333
						-0.724749 -0.033333
						-0.620973 0.013333
						-0.490167 -0.033333
						-0.490167 0.013333
						-0.620973 -0.033333
						1.035288 0.013333
						0.926283 0.000000
						1.035288 0.000000
						0.926283 0.013333
						1.052362 0.013333
						0.943356 0.000000
						1.052362 0.000000
						0.943356 0.013333
						1.001433 0.013333
						0.892428 0.000000
						1.001433 0.000000
						0.892428 0.013333
						0.951375 0.013333
						0.842370 0.000000
						0.951375 0.000000
						0.842370 0.013333
						0.885972 0.013333
						0.776967 0.000000
						0.885972 0.000000
						0.776967 0.013333
						0.806342 0.013333
						0.697337 0.000000
						0.806342 0.000000
						0.697337 0.013333
						1.000000 0.013333
						0.833333 -0.033333
						1.000000 -0.033333
						0.833333 0.000000
						0.833333 0.013333
						0.000000 0.013333
						0.000000 -0.033333
						0.166667 0.013333
						-0.986958 0.013333
						-1.008759 -0.000000
						-0.986958 -0.000000
						-1.008759 0.013333
						-0.969885 0.013333
						-0.991686 0.000000
						-0.969885 0.000000
						-0.991686 0.013333
						-0.936030 0.013333
						-0.957831 0.000000
						-0.936030 0.000000
						-0.957831 0.013333
						-0.885972 0.013333
						-0.907773 0.000000
						-0.885972 0.000000
						-0.907773 0.013333
						-0.820569 0.013333
						-0.842370 0.000000
						-0.820569 0.000000
						-0.842370 0.013333
						-0.740939 0.013333
						-0.762740 0.000000
						-0.740939 0.000000
						-0.762740 0.013333
						-0.670246 0.013333
						-0.648445 0.000000
						-0.648445 0.013333
						-0.670246 0.000000
						-0.566471 0.013333
						-0.544670 0.000000
						-0.544670 0.013333
						-0.566471 0.000000
						-0.453189 0.013333
						-0.431388 0.000000
						-0.431388 0.013333
						-0.453189 0.000000
						-0.332340 0.013333
						-0.310539 0.000000
						-0.310539 0.013333
						-0.332340 0.000000
						-0.205991 0.013333
						-0.184190 0.000000
						-0.184190 0.013333
						-0.205991 0.000000
						-0.076304 0.013333
						-0.054503 0.000000
						-0.054503 0.013333
						-0.076304 0.000000
						-0.173796 0.108772
						-0.833333 -0.000000
						-0.166667 -0.000000
						-0.195062 0.215683
						-0.230100 0.318903
						-0.278312 0.416667
						-0.338872 0.507301
						-0.410744 0.589256
						-0.492699 0.661128
						-0.583333 0.721688
						-0.681097 0.769900
						-0.784317 0.804938
						-0.834759 0.021754
						-0.891228 0.826204
						-0.839012 0.043137
						-0.846020 0.063781
						-0.855662 0.083333
						-0.867774 0.101460
						-0.882149 0.117851
						-0.898540 0.132226
						-1.000000 0.833333
						-0.916667 0.144338
						-0.936219 0.153980
						-0.956863 0.160988
						-0.978246 0.165241
						-1.000000 0.166667
						1.008759 0.000000
						0.986958 -0.033333
						1.008759 -0.033333
						0.986958 0.000000
						-0.375942 0.000000
						-0.266937 -0.033333
						-0.266937 0.000000
						-0.375942 -0.033333
						-0.249593 0.000000
						-0.140588 -0.033333
						-0.140588 0.000000
						-0.249593 -0.033333
						-0.119906 0.000000
						-0.010901 -0.033333
						-0.010901 0.000000
						-0.119906 -0.033333
						0.833333 0.000000
						-0.834759 0.021754
						-1.000000 -0.000000
						-0.833333 -0.000000
						-0.839012 0.043137
						-0.846020 0.063781
						-0.855662 0.083333
						-0.867774 0.101460
						-0.882149 0.117851
						-0.898540 0.132226
						-0.916667 0.144338
						-0.936219 0.153980
						-0.978246 0.165241
						-1.000000 0.166667
						-0.076304 0.000000
						-0.054503 -0.033333
						-0.054503 0.000000
						-0.076304 -0.033333
						-0.205991 0.000000
						-0.184190 -0.033333
						-0.184190 0.000000
						-0.205991 -0.033333
						-0.332340 0.000000
						-0.310539 -0.033333
						-0.310539 0.000000
						-0.332340 -0.033333
						-0.453189 0.000000
						-0.431388 -0.033333
						-0.431388 0.000000
						-0.453189 -0.033333
						-0.566471 0.000000
						-0.544670 -0.033333
						-0.544670 0.000000
						-0.566471 -0.033333
						-0.670246 0.000000
						-0.648445 -0.033333
						-0.648445 0.000000
						-0.670246 -0.033333
						-0.740939 0.000000
						-0.762740 -0.033333
						-0.740939 -0.033333
						-0.762740 0.000000
						-0.820569 0.000000
						-0.842370 -0.033333
						-0.820569 -0.033333
						-0.842370 0.000000
						-0.885972 0.000000
						-0.907773 -0.033333
						-0.885972 -0.033333
						-0.907773 0.000000
						-0.936030 0.000000
						-0.957831 -0.033333
						-0.936030 -0.033333
						-0.957831 0.000000
						-0.969885 0.000000
						-0.991686 -0.033333
						-0.969885 -0.033333
						-0.991686 0.000000
						-0.008555 0.130526
						-0.166667 -0.000000
						-0.000000 -0.000000
						-0.034074 0.258819
						-0.076120 0.382683
						-0.133975 0.500000
						-0.206647 0.608761
						-0.292893 0.707107
						-0.391239 0.793353
						-0.500000 0.866025
						-0.617317 0.923880
						-0.741181 0.965926
						-0.869474 0.991445
						-1.000000 1.000000
						0.943356 -0.033333
						1.052362 -0.033333
						0.926283 -0.033333
						1.035288 -0.033333
						0.892428 -0.033333
						1.001433 -0.033333
						0.892428 0.000000
						0.842370 -0.033333
						0.951375 -0.033333
						0.885972 0.000000
						0.776967 -0.033333
						0.885972 -0.033333
						0.776967 0.000000
						0.697337 -0.033333
						0.806342 -0.033333
						0.713848 -0.033333
						0.604843 0.000000
						0.604843 -0.033333
						0.713848 0.000000
						0.610073 -0.033333
						0.501068 0.000000
						0.501068 -0.033333
						0.610073 0.000000
						0.496791 -0.033333
						0.387786 -0.033333
					</float_array>
					<technique_common>
						<accessor source="#geometries_0-Texture_Projection-array" count="299" stride="2">
							<param name="S" type="float"/>
							<param name="T" type="float"/>
						</accessor>
					</technique_common>
				</source>
				<vertices id="geometries_0-Vtx">										
					<input semantic="POSITION" source="#geometries_0-Pos"/>				
				</vertices>
				<triangles count="195" material="segment-curve-1-concrete">		
					<input semantic="VERTEX" source="#geometries_0-Vtx" offset="0"/>
					<input semantic="NORMAL" source="#geometries_0-Normal" offset="1"/>	
					<input semantic="TEXCOORD" source="#geometries_0-Texture_Projection" offset="2"/>
					<p>
						0	0	0
						1	0	1
						2	0	2
						1	0	1
						0	0	0
						3	0	3
						3	1	4
						4	1	5
						1	1	6
						4	1	5
						3	1	4
						5	1	7
						6	2	8
						7	2	9
						8	2	10
						7	2	9
						6	2	8
						9	2	11
						9	2	11
						6	2	8
						10	2	12
						11	3	13
						2	3	14
						12	3	15
						2	3	14
						11	3	13
						0	3	16
						13	4	17
						12	4	18
						14	4	19
						12	4	18
						13	4	17
						11	4	20
						5	5	21
						6	5	22
						4	5	23
						6	5	22
						5	5	21
						10	5	24
						15	6	25
						14	6	26
						16	6	27
						14	6	26
						15	6	25
						13	6	28
						17	7	29
						18	7	30
						19	7	31
						18	7	30
						17	7	29
						20	7	32
						19	8	33
						21	8	34
						22	8	35
						21	8	34
						19	8	33
						18	8	36
						22	9	37
						23	9	38
						24	9	39
						23	9	38
						22	9	37
						21	9	40
						24	10	41
						25	10	42
						26	10	43
						25	10	42
						24	10	41
						23	10	44
						26	11	45
						27	11	46
						28	11	47
						27	11	46
						26	11	45
						25	11	48
						28	12	49
						29	12	50
						30	12	51
						29	12	50
						28	12	49
						27	12	52
						30	13	53
						31	13	54
						32	13	55
						31	13	54
						30	13	53
						33	13	56
						33	13	56
						30	13	53
						29	13	57
						34	14	58
						31	14	54
						33	14	56
						31	14	54
						34	14	58
						35	14	59
						36	15	60
						35	15	61
						34	15	62
						35	15	61
						36	15	60
						37	15	63
						38	16	64
						37	16	65
						36	16	66
						37	16	65
						38	16	64
						39	16	67
						40	17	68
						39	17	69
						38	17	70
						39	17	69
						40	17	68
						41	17	71
						15	18	72
						42	18	73
						43	18	74
						42	18	73
						15	18	72
						16	18	75
						43	19	76
						41	19	77
						40	19	78
						41	19	77
						43	19	76
						42	19	79
						44	20	80
						45	20	81
						46	20	82
						45	20	81
						44	20	80
						47	20	83
						9	21	84
						46	21	85
						7	21	86
						46	21	85
						9	21	84
						44	21	87
						47	22	88
						48	22	89
						45	22	90
						48	22	89
						47	22	88
						49	22	91
						49	23	92
						50	23	93
						48	23	94
						50	23	93
						49	23	92
						51	23	95
						51	24	96
						52	24	97
						50	24	98
						52	24	97
						51	24	96
						53	24	99
						53	25	100
						17	25	101
						52	25	102
						17	25	101
						53	25	100
						20	25	103
						54	26	104
						55	26	105
						56	26	106
						55	26	105
						54	26	104
						57	26	107
						57	26	107
						54	26	104
						58	26	108
						59	2	55
						54	2	109
						56	2	110
						54	2	109
						59	2	55
						60	2	111
						61	27	112
						62	27	113
						63	27	114
						62	27	113
						61	27	112
						60	27	115
						64	28	116
						63	28	117
						65	28	118
						63	28	117
						64	28	116
						61	28	119
						66	29	120
						65	29	121
						67	29	122
						65	29	121
						66	29	120
						64	29	123
						68	30	124
						67	30	125
						69	30	126
						67	30	125
						68	30	124
						66	30	127
						70	31	128
						69	31	129
						71	31	130
						69	31	129
						70	31	128
						68	31	131
						72	32	132
						71	32	133
						73	32	134
						71	32	133
						72	32	132
						70	32	135
						72	33	136
						74	33	137
						75	33	138
						74	33	137
						72	33	136
						73	33	139
						75	34	140
						76	34	141
						77	34	142
						76	34	141
						75	34	140
						74	34	143
						77	35	144
						78	35	145
						79	35	146
						78	35	145
						77	35	144
						76	35	147
						79	36	148
						80	36	149
						81	36	150
						80	36	149
						79	36	148
						78	36	151
						81	37	152
						82	37	153
						83	37	154
						82	37	153
						81	37	152
						80	37	155
						83	38	156
						57	38	157
						58	38	158
						57	38	157
						83	38	156
						82	38	159
						84	39	160
						55	39	161
						32	39	162
						55	39	161
						84	39	160
						85	39	163
						55	39	161
						85	39	163
						86	39	164
						55	39	161
						86	39	164
						87	39	165
						55	39	161
						87	39	165
						88	39	166
						55	39	161
						88	39	166
						89	39	167
						55	39	161
						89	39	167
						90	39	168
						55	39	161
						90	39	168
						91	39	169
						55	39	161
						91	39	169
						92	39	170
						55	39	161
						92	39	170
						93	39	171
						55	39	161
						93	39	171
						94	39	172
						94	39	172
						93	39	171
						95	39	173
						94	39	172
						95	39	173
						96	39	174
						96	39	174
						95	39	173
						97	39	175
						97	39	175
						95	39	173
						98	39	176
						98	39	176
						95	39	173
						99	39	177
						99	39	177
						95	39	173
						100	39	178
						100	39	178
						95	39	173
						101	39	179
						101	39	179
						95	39	173
						8	39	180
						101	39	179
						8	39	180
						102	39	181
						102	39	181
						8	39	180
						103	39	182
						103	39	182
						8	39	180
						104	39	183
						104	39	183
						8	39	180
						105	39	184
						105	39	184
						8	39	180
						59	39	185
						62	40	186
						105	40	187
						59	40	188
						105	40	187
						62	40	186
						63	40	189
						8	2	10
						62	2	53
						59	2	55
						62	2	53
						8	2	10
						7	2	9
						24	41	190
						85	41	191
						26	41	192
						85	41	191
						24	41	190
						86	41	193
						26	42	194
						84	42	195
						28	42	196
						84	42	195
						26	42	194
						85	42	197
						28	43	198
						32	43	199
						30	43	200
						32	43	199
						28	43	198
						84	43	201
						57	13	202
						32	13	55
						55	13	105
						32	13	55
						57	13	202
						30	13	53
						94	44	203
						56	44	204
						55	44	205
						56	44	204
						94	44	203
						96	44	206
						56	44	204
						96	44	206
						97	44	207
						56	44	204
						97	44	207
						98	44	208
						56	44	204
						98	44	208
						99	44	209
						56	44	204
						99	44	209
						100	44	210
						56	44	204
						100	44	210
						101	44	211
						56	44	204
						101	44	211
						102	44	212
						56	44	204
						102	44	212
						103	44	213
						56	44	204
						103	44	213
						104	44	183
						56	44	204
						104	44	183
						105	44	214
						56	44	204
						105	44	214
						59	44	215
						82	45	216
						55	45	217
						57	45	218
						55	45	217
						82	45	216
						94	45	219
						80	46	220
						94	46	221
						82	46	222
						94	46	221
						80	46	220
						96	46	223
						78	47	224
						96	47	225
						80	47	226
						96	47	225
						78	47	224
						97	47	227
						76	48	228
						97	48	229
						78	48	230
						97	48	229
						76	48	228
						98	48	231
						74	49	232
						98	49	233
						76	49	234
						98	49	233
						74	49	232
						99	49	235
						73	50	236
						99	50	237
						74	50	238
						99	50	237
						73	50	236
						100	50	239
						73	51	240
						101	51	241
						100	51	242
						101	51	241
						73	51	240
						71	51	243
						71	52	244
						102	52	245
						101	52	246
						102	52	245
						71	52	244
						69	52	247
						69	53	248
						103	53	249
						102	53	250
						103	53	249
						69	53	248
						67	53	251
						67	54	252
						104	54	253
						103	54	254
						104	54	253
						67	54	252
						65	54	255
						65	55	256
						105	55	257
						104	55	258
						105	55	257
						65	55	256
						63	55	259
						35	56	260
						32	56	261
						31	56	262
						32	56	261
						35	56	260
						37	56	263
						32	56	261
						37	56	263
						39	56	264
						32	56	261
						39	56	264
						41	56	265
						32	56	261
						41	56	265
						84	56	160
						84	56	160
						41	56	265
						42	56	266
						84	56	160
						42	56	266
						85	56	163
						85	56	163
						42	56	266
						86	56	164
						86	56	164
						42	56	266
						16	56	267
						86	56	164
						16	56	267
						87	56	165
						87	56	165
						16	56	267
						88	56	166
						88	56	166
						16	56	267
						14	56	268
						88	56	166
						14	56	268
						89	56	167
						89	56	167
						14	56	268
						12	56	269
						89	56	167
						12	56	269
						90	56	168
						90	56	168
						12	56	269
						91	56	169
						91	56	169
						12	56	269
						2	56	270
						91	56	169
						2	56	270
						92	56	170
						92	56	170
						2	56	270
						1	56	271
						92	56	170
						1	56	271
						93	56	171
						93	56	171
						1	56	271
						4	56	272
						93	56	171
						4	56	272
						95	56	173
						95	56	173
						4	56	272
						6	56	273
						95	56	173
						6	56	273
						8	56	180
						7	21	86
						95	21	274
						8	21	275
						95	21	274
						7	21	86
						46	21	85
						46	57	82
						93	57	276
						95	57	277
						93	57	276
						46	57	82
						45	57	81
						45	58	90
						92	58	278
						93	58	279
						92	58	278
						45	58	90
						48	58	280
						48	59	94
						91	59	281
						92	59	282
						91	59	281
						48	59	94
						50	59	93
						50	60	283
						90	60	284
						91	60	285
						90	60	284
						50	60	283
						52	60	286
						52	25	102
						89	25	287
						90	25	288
						89	25	287
						52	25	102
						17	25	101
						89	61	289
						19	61	290
						88	61	291
						19	61	290
						89	61	289
						17	61	292
						88	62	293
						22	62	294
						87	62	295
						22	62	294
						88	62	293
						19	62	296
						87	63	297
						24	63	39
						86	63	298
						24	63	39
						87	63	297
						22	63	37
					</p>
				</triangles>
			</mesh>
		</geometry>
		<geometry id="geometries_1">												
			<mesh>
				<source id="geometries_1-Pos">											
					<float_array id="geometries_1-Pos-array" count="198">				
						2.5 0.2 -0.0
						0.12832707939284 0.2 -1.95789288330078
						0.0 0.2 -0.0
						0.511112605663976 0.2 -3.88228567653783
						1.1418070123307 0.2 -5.74025148547636
						2.00961894323342 0.2 -7.5
						2.60693923282737 0.2 -1.63157740275064
						3.09969989563147 0.2 -9.13142143513081
						2.92592717138665 0.2 -3.23523806378151
						3.45150584360892 0.2 -4.78354290456362
						4.39339828220179 0.2 -10.6066017177982
						4.17468245269452 0.2 -6.25
						5.08308324635956 0.2 -7.60951786260901
						5.86857856486919 0.2 -11.9003001043685
						6.16116523516816 0.2 -8.83883476483184
						7.5 0.2 -12.9903810567666
						7.39048213739099 0.2 -9.91691675364044
						8.75 0.2 -10.8253175473055
						9.25974851452366 0.2 -13.8581929876693
						10.2164570954364 0.2 -11.5484941563911
						11.1177143234622 0.2 -14.488887394336
						11.7647619362185 0.2 -12.0740728286134
						13.0421071166992 0.2 -14.8716729206072
						13.3684225972494 0.2 -12.3930607671726
						15.0 0.2 -15.0
						15.0 0.2 -12.5
						15.0 0.199999999999996 -0.0
						12.5213878465655 0.199999999999997 -0.326315480550131
						12.5 0.199999999999997 -0.0
						12.5851854342773 0.199999999999997 -0.647047612756308
						12.6903011687218 0.199999999999997 -0.956708580912724
						12.8349364905389 0.199999999999997 -1.25
						13.0166166492719 0.199999999999997 -1.52190357252181
						13.2322330470336 0.199999999999997 -1.76776695296637
						13.4780964274782 0.199999999999997 -1.98338335072809
						13.75 0.199999999999997 -2.16506350946112
						14.0432914190873 0.199999999999997 -2.30969883127822
						14.3529523872437 0.199999999999997 -2.41481456572268
						14.6736845194499 0.199999999999997 -2.47861215343453
						15.0 0.199999999999997 -2.5
						12.5 0.0 -0.0
						2.60693923282737 0.0 -1.63157740275064
						2.5 0.0 -0.0
						2.92592717138665 0.0 -3.23523806378151
						3.45150584360892 0.0 -4.78354290456362
						4.17468245269452 0.0 -6.25
						5.08308324635956 0.0 -7.60951786260901
						6.16116523516816 0.0 -8.83883476483184
						7.39048213739099 0.0 -9.91691675364044
						8.75 0.0 -10.8253175473055
						10.2164570954364 0.0 -11.5484941563911
						11.7647619362185 0.0 -12.0740728286134
						12.5213878465655 0.0 -0.326315480550131
						13.3684225972494 0.0 -12.3930607671726
						12.5851854342773 0.0 -0.647047612756308
						12.6903011687218 0.0 -0.956708580912724
						12.8349364905389 0.0 -1.25
						13.0166166492719 0.0 -1.52190357252181
						13.2322330470336 0.0 -1.76776695296637
						13.4780964274782 0.0 -1.98338335072809
						15.0 0.0 -12.5
						13.75 0.0 -2.16506350946112
						14.0432914190873 0.0 -2.30969883127822
						14.3529523872437 0.0 -2.41481456572268
						14.6736845194499 0.0 -2.47861215343453
						15.0 0.0 -2.5
					</float_array>
					<technique_common>
						<accessor source="#geometries_1-Pos-array" count="66" stride="3"> 	
							<param name="X" type="float"/>
							<param name="Y" type="float"/>
							<param name="Z" type="float"/>
						</accessor>
					</technique_common>
				</source>
				<source id="geometries_1-Normal">									
					<float_array id="geometries_1-Normal-array" count="6">			
						0.000000 0.000000 0.025400
						0.000000 -0.000000 0.025400
					</float_array>
					<technique_common>
						<accessor source="#geometries_1-Normal-array" count="2" stride="3">	
							<param name="X" type="float"/>
							<param name="Y" type="float"/>
							<param name="Z" type="float"/>
						</accessor>
					</technique_common>
				</source>
				<source id="geometries_1-Texture_Projection">
					<float_array id="geometries_1-Texture_Projection-array" count="82">
						0.166667 0.000000
						0.008555 0.130526
						0.000000 0.000000
						0.034074 0.258819
						0.076120 0.382683
						0.133975 0.500000
						0.173796 0.108772
						0.206647 0.608761
						0.195062 0.215683
						0.230100 0.318903
						0.292893 0.707107
						0.278312 0.416667
						0.338872 0.507301
						0.391239 0.793353
						0.410744 0.589256
						0.500000 0.866025
						0.492699 0.661128
						0.583333 0.721688
						0.617317 0.923880
						0.681097 0.769900
						0.741181 0.965926
						0.784317 0.804938
						0.869474 0.991445
						0.891228 0.826204
						1.000000 1.000000
						1.000000 0.833333
						1.000000 0.000000
						0.834759 0.021754
						0.833333 0.000000
						0.839012 0.043137
						0.846020 0.063781
						0.855662 0.083333
						0.867774 0.101460
						0.882149 0.117851
						0.898540 0.132226
						0.916667 0.144338
						0.936219 0.153980
						0.956863 0.160988
						0.978246 0.165241
						1.000000 0.166667
						0.833333 0.000000
					</float_array>
					<technique_common>
						<accessor source="#geometries_1-Texture_Projection-array" count="41" stride="2">
							<param name="S" type="float"/>
							<param name="T" type="float"/>
						</accessor>
					</technique_common>
				</source>
				<vertices id="geometries_1-Vtx">										
					<input semantic="POSITION" source="#geometries_1-Pos"/>				
				</vertices>
				<triangles count="60" material="segment-curve-2-tip3d">		
					<input semantic="VERTEX" source="#geometries_1-Vtx" offset="0"/>
					<input semantic="NORMAL" source="#geometries_1-Normal" offset="1"/>	
					<input semantic="TEXCOORD" source="#geometries_1-Texture_Projection" offset="2"/>
					<p>
						0	0	0
						1	0	1
						2	0	2
						1	0	1
						0	0	0
						3	0	3
						3	0	3
						0	0	0
						4	0	4
						4	0	4
						0	0	0
						5	0	5
						5	0	5
						0	0	0
						6	0	6
						5	0	5
						6	0	6
						7	0	7
						7	0	7
						6	0	6
						8	0	8
						7	0	7
						8	0	8
						9	0	9
						7	0	7
						9	0	9
						10	0	10
						10	0	10
						9	0	9
						11	0	11
						10	0	10
						11	0	11
						12	0	12
						10	0	10
						12	0	12
						13	0	13
						13	0	13
						12	0	12
						14	0	14
						13	0	13
						14	0	14
						15	0	15
						15	0	15
						14	0	14
						16	0	16
						15	0	15
						16	0	16
						17	0	17
						15	0	15
						17	0	17
						18	0	18
						18	0	18
						17	0	17
						19	0	19
						18	0	18
						19	0	19
						20	0	20
						20	0	20
						19	0	19
						21	0	21
						20	0	20
						21	0	21
						22	0	22
						22	0	22
						21	0	21
						23	0	23
						22	0	22
						23	0	23
						24	0	24
						24	0	24
						23	0	23
						25	0	25
						26	1	26
						27	1	27
						28	1	28
						27	1	27
						26	1	26
						29	1	29
						29	1	29
						26	1	26
						30	1	30
						30	1	30
						26	1	26
						31	1	31
						31	1	31
						26	1	26
						32	1	32
						32	1	32
						26	1	26
						33	1	33
						33	1	33
						26	1	26
						34	1	34
						34	1	34
						26	1	26
						35	1	35
						35	1	35
						26	1	26
						36	1	36
						36	1	36
						26	1	26
						37	1	37
						37	1	37
						26	1	26
						38	1	38
						38	1	38
						26	1	26
						39	1	39
						40	0	40
						41	0	6
						42	0	0
						41	0	6
						40	0	40
						43	0	8
						43	0	8
						40	0	40
						44	0	9
						44	0	9
						40	0	40
						45	0	11
						45	0	11
						40	0	40
						46	0	12
						46	0	12
						40	0	40
						47	0	14
						47	0	14
						40	0	40
						48	0	16
						48	0	16
						40	0	40
						49	0	17
						49	0	17
						40	0	40
						50	0	19
						50	0	19
						40	0	40
						51	0	21
						51	0	21
						40	0	40
						52	0	27
						51	0	21
						52	0	27
						53	0	23
						53	0	23
						52	0	27
						54	0	29
						53	0	23
						54	0	29
						55	0	30
						53	0	23
						55	0	30
						56	0	31
						53	0	23
						56	0	31
						57	0	32
						53	0	23
						57	0	32
						58	0	33
						53	0	23
						58	0	33
						59	0	34
						53	0	23
						59	0	34
						60	0	25
						60	0	25
						59	0	34
						61	0	35
						60	0	25
						61	0	35
						62	0	36
						60	0	25
						62	0	36
						63	0	37
						60	0	25
						63	0	37
						64	0	38
						60	0	25
						64	0	38
						65	0	39
					</p>
				</triangles>
			</mesh>
		</geometry>
	</library_geometries>
	<library_visual_scenes>
		<visual_scene id="visual_scenes_0" name="untitled">
			<node id="UnityExportNode_segment-curve">					
				<translate sid="translation">0.000000 0.000000 0.000000</translate>
				<rotate sid="rotation_z">0.000000 0.000000 1.000000 0.000000</rotate>
				<rotate sid="rotation_y">0.000000 1.000000 0.000000 0.000000</rotate>
				<rotate sid="rotation_x">1.000000 0.000000 0.000000 0.000000</rotate>
				<scale sid="scale">1.000000 1.000000 1.000000</scale>
							<node id="mesh0%root%0%">													
								<translate sid="translation">0 0 0</translate><rotate>0 0 0 0</rotate><scale sid="scale">1.000000 1.000000 1.000000</scale>
								<instance_geometry url="#geometries_0">
									<bind_material>
										<technique_common>
											<instance_material symbol="segment-curve-1-concrete" target="#segment-curve-1-concrete"> 




												<bind semantic="diffuse_TEXCOORD" target="geometries_0-"></bind>
											</instance_material>	
										</technique_common>
									</bind_material>
								</instance_geometry>
							<node id="mesh0%root%1%">													
								<translate sid="translation">0 0 0</translate><rotate>0 0 0 0</rotate><scale sid="scale">1.000000 1.000000 1.000000</scale>
								<instance_geometry url="#geometries_1">
									<bind_material>
										<technique_common>
											<instance_material symbol="segment-curve-2-tip3d" target="#segment-curve-2-tip3d"> 




												<bind semantic="diffuse_TEXCOORD" target="geometries_1-"></bind>
											</instance_material>	
										</technique_common>
									</bind_material>
								</instance_geometry>
				</node>
				</node>
			</node>
		</visual_scene>
	</library_visual_scenes>
	<scene>
		<instance_visual_scene url="#visual_scenes_0"/>
	</scene>
</COLLADA>
