<?xml version="1.0" encoding="utf-8"?>
<COLLADA xmlns="http://www.collada.org/2005/11/COLLADASchema" version="1.4.1">
	<asset>
		<contributor>
			<authoring_tool>PlayUp</authoring_tool>							
		</contributor>
		<created>2012-06-24T14:27:21Z</created> 										
		<modified>2012-06-24T14:27:21Z</modified>										
		<revision>1.4.1</revision>
		<unit meter="1.0" name="meter"></unit>
	</asset>
	<library_images>
		<image id="concrete_tga_img" format="bitmap" height="64" width="64" depth="32">
			<init_from>PlayUp/Objects/Materials/Textures/concrete.tga</init_from>
		</image>
		<image id="VZdue_tga_img" format="bitmap" height="512" width="512" depth="32">
			<init_from>PlayUp/Objects/Materials/Textures/VZdue.tga</init_from>
		</image>
	</library_images>
	<library_effects>
		<effect id="segment-cross-1-concrete_fx">								
			<profile_COMMON>
				<newparam sid="concrete_tga_surface">
					<surface type="2D">
						<init_from>concrete_tga_img</init_from>
					</surface>
				</newparam>
				<newparam sid="concrete_tga_sampler">
					<sampler2D>
						<source>concrete_tga_surface</source>
					</sampler2D>
				</newparam>
				<technique sid="default">
					<phong>
						<emission>
							<color sid="emission">0.000000 0.000000 0.000000 1.000000</color>
						</emission>
						<ambient>
							<color sid="ambient">0.000000 0.000000 0.000000 1.000000</color>
						</ambient>
						<diffuse>
							<texture texture="concrete_tga_sampler" texcoord="diffuse_TEXCOORD"></texture> RARRR~!~
						</diffuse>
						<specular>
							<color sid="specular">0.000000 0.000000 0.000000 1.000000</color>
						</specular>
						<shininess>
							<float sid="shininess">0.000000</float>
						</shininess>
						<reflective>
							<color sid="reflective">0.000000 0.000000 0.000000 1.000000</color>
						</reflective>
						<reflectivity>
							<float sid="reflectivity">0.000000</float>
						</reflectivity>
						<transparent opaque="RGB_ZERO">
							<color sid="transparent">0.000000 0.000000 0.000000 0.000000</color>
						</transparent>
						<transparency>
							<float sid="transparency">0.000000</float>
						</transparency>
						<index_of_refraction>
							<float sid="index_of_refraction">0.000000</float>
						</index_of_refraction>
					</phong>
				</technique>
			</profile_COMMON>
		</effect>
		<effect id="segment-cross-2-VZdue_fx">								
			<profile_COMMON>
				<newparam sid="VZdue_tga_surface">
					<surface type="2D">
						<init_from>VZdue_tga_img</init_from>
					</surface>
				</newparam>
				<newparam sid="VZdue_tga_sampler">
					<sampler2D>
						<source>VZdue_tga_surface</source>
					</sampler2D>
				</newparam>
				<technique sid="default">
					<phong>
						<emission>
							<color sid="emission">0.000000 0.000000 0.000000 1.000000</color>
						</emission>
						<ambient>
							<color sid="ambient">0.000000 0.000000 0.000000 1.000000</color>
						</ambient>
						<diffuse>
							<texture texture="VZdue_tga_sampler" texcoord="diffuse_TEXCOORD"></texture> RARRR~!~
						</diffuse>
						<specular>
							<color sid="specular">0.000000 0.000000 0.000000 1.000000</color>
						</specular>
						<shininess>
							<float sid="shininess">0.000000</float>
						</shininess>
						<reflective>
							<color sid="reflective">0.000000 0.000000 0.000000 1.000000</color>
						</reflective>
						<reflectivity>
							<float sid="reflectivity">0.000000</float>
						</reflectivity>
						<transparent opaque="RGB_ZERO">
							<color sid="transparent">0.000000 0.000000 0.000000 0.000000</color>
						</transparent>
						<transparency>
							<float sid="transparency">0.000000</float>
						</transparency>
						<index_of_refraction>
							<float sid="index_of_refraction">0.000000</float>
						</index_of_refraction>
					</phong>
				</technique>
			</profile_COMMON>
		</effect>

	</library_effects>
	<library_materials>
		<material id="segment-cross-1-concrete">									
			<instance_effect url="#segment-cross-1-concrete_fx"></instance_effect>	
		</material>
		<material id="segment-cross-2-VZdue">									
			<instance_effect url="#segment-cross-2-VZdue_fx"></instance_effect>	
		</material>
	</library_materials>
	<library_geometries>
		<geometry id="geometries_0">												
			<mesh>
				<source id="geometries_0-Pos">											
					<float_array id="geometries_0-Pos-array" count="132">				
						0.0 0.2 -15.0
						2.5 -0.5 -15.0
						0.0 -0.5 -15.0
						2.5 0.0 -15.0
						2.5 0.2 -15.0
						0.0 0.0 -12.5
						0.0 0.2 -12.5
						0.0 -0.5 -12.5
						2.5 0.2 -12.5
						2.5 0.0 -12.5
						0.0 0.2 -2.5
						0.0 -0.5 -0.0
						0.0 0.2 -0.0
						0.0 -0.5 -2.5
						2.5 0.0 -2.5
						2.5 0.2 -0.0
						2.5 0.0 -0.0
						2.5 0.2 -2.5
						2.5 -0.5 -0.0
						0.0 0.0 -2.5
						15.0 -0.5 -2.5
						15.0 0.2 -0.0
						15.0 -0.5 -0.0
						15.0 0.2 -2.5
						12.5 0.2 -2.5
						15.0 0.0 -2.5
						12.5 0.0 -2.5
						12.5 -0.5 -0.0
						12.5 0.0 -0.0
						12.5 0.2 -0.0
						15.0 -0.5 -15.0
						15.0 0.0 -12.5
						15.0 -0.5 -12.5
						15.0 0.2 -12.5
						15.0 0.2 -15.0
						12.5 -0.5 -15.0
						12.5 0.0 -15.0
						12.5 0.2 -15.0
						12.5 0.0 -12.5
						12.5 0.2 -12.5
						12.5 -0.5 -2.5
						12.5 -0.5 -12.5
						2.5 -0.5 -12.5
						2.5 -0.5 -2.5
					</float_array>
					<technique_common>
						<accessor source="#geometries_0-Pos-array" count="44" stride="3"> 	
							<param name="X" type="float"/>
							<param name="Y" type="float"/>
							<param name="Z" type="float"/>
						</accessor>
					</technique_common>
				</source>
				<source id="geometries_0-Normal">									
					<float_array id="geometries_0-Normal-array" count="18">			
						0.000000 0.025400 0.000000
						-0.025400 0.000000 0.000000
						0.000000 -0.025400 0.000000
						0.025400 0.000000 0.000000
						0.000000 0.000000 -0.025400
						-0.000000 -0.000000 -0.025400
					</float_array>
					<technique_common>
						<accessor source="#geometries_0-Normal-array" count="6" stride="3">	
							<param name="X" type="float"/>
							<param name="Y" type="float"/>
							<param name="Z" type="float"/>
						</accessor>
					</technique_common>
				</source>
				<source id="geometries_0-Texture_Projection">
					<float_array id="geometries_0-Texture_Projection-array" count="70">
						0.000000 0.013333
						-0.166667 -0.033333
						0.000000 -0.033333
						-0.166667 0.000000
						-0.166667 0.013333
						-1.000000 0.013333
						-0.833333 0.000000
						-0.833333 0.013333
						-0.833333 -0.033333
						-1.000000 -0.033333
						0.166667 0.013333
						0.000000 0.000000
						0.166667 0.000000
						1.000000 0.000000
						0.833333 0.013333
						0.833333 0.000000
						1.000000 0.013333
						0.166667 -0.033333
						-1.000000 0.000000
						0.833333 -0.033333
						1.000000 -0.033333
						1.000000 -0.033333
						-1.000000 -0.033333
						-1.000000 0.833333
						-0.833333 0.166667
						-0.833333 0.833333
						-1.000000 0.166667
						-0.833333 1.000000
						-0.166667 0.833333
						-0.166667 1.000000
						-0.166667 0.166667
						0.000000 0.166667
						0.000000 0.833333
						-1.000000 1.000000
						0.000000 1.000000
					</float_array>
					<technique_common>
						<accessor source="#geometries_0-Texture_Projection-array" count="35" stride="2">
							<param name="S" type="float"/>
							<param name="T" type="float"/>
						</accessor>
					</technique_common>
				</source>
				<vertices id="geometries_0-Vtx">										
					<input semantic="POSITION" source="#geometries_0-Pos"/>				
				</vertices>
				<triangles count="78" material="segment-cross-1-concrete">		
					<input semantic="VERTEX" source="#geometries_0-Vtx" offset="0"/>
					<input semantic="NORMAL" source="#geometries_0-Normal" offset="1"/>	
					<input semantic="TEXCOORD" source="#geometries_0-Texture_Projection" offset="2"/>
					<p>
						0	0	0
						1	0	1
						2	0	2
						1	0	1
						0	0	0
						3	0	3
						3	0	3
						0	0	0
						4	0	4
						0	1	5
						5	1	6
						6	1	7
						5	1	6
						0	1	5
						7	1	8
						7	1	8
						0	1	5
						2	1	9
						8	2	10
						5	2	11
						9	2	12
						5	2	11
						8	2	10
						6	2	0
						3	3	13
						8	3	14
						9	3	15
						8	3	14
						3	3	13
						4	3	16
						10	1	4
						11	1	2
						12	1	0
						11	1	2
						10	1	4
						13	1	1
						14	3	12
						15	3	0
						16	3	11
						15	3	0
						14	3	12
						17	3	10
						16	2	12
						11	2	2
						18	2	17
						11	2	2
						16	2	12
						12	2	0
						12	2	0
						16	2	12
						15	2	10
						10	0	0
						14	0	3
						19	0	11
						14	0	3
						10	0	0
						17	0	4
						20	3	17
						21	3	0
						22	3	2
						21	3	0
						20	3	17
						23	3	10
						24	0	7
						25	0	18
						26	0	6
						25	0	18
						24	0	7
						23	0	5
						21	2	16
						27	2	19
						22	2	20
						27	2	19
						21	2	16
						28	2	15
						28	2	15
						21	2	16
						29	2	14
						24	1	4
						28	1	11
						29	1	0
						28	1	11
						24	1	4
						26	1	3
						30	3	21
						31	3	15
						32	3	19
						31	3	15
						30	3	21
						33	3	14
						33	3	14
						30	3	21
						34	3	16
						35	0	8
						34	0	5
						30	0	22
						34	0	5
						35	0	8
						36	0	6
						34	0	5
						36	0	6
						37	0	7
						37	1	5
						38	1	6
						39	1	7
						38	1	6
						37	1	5
						36	1	18
						33	2	16
						38	2	15
						31	2	13
						38	2	15
						33	2	16
						39	2	14
						32	4	23
						40	4	24
						41	4	25
						40	4	24
						32	4	23
						20	4	26
						35	4	27
						42	4	28
						1	4	29
						42	4	28
						35	4	27
						43	4	30
						43	4	30
						35	4	27
						18	4	3
						18	4	3
						35	4	27
						27	4	6
						42	4	28
						13	4	31
						7	4	32
						13	4	31
						42	4	28
						43	4	30
						3	0	3
						35	0	8
						1	0	1
						35	0	8
						3	0	3
						36	0	6
						5	1	6
						13	1	1
						19	1	3
						13	1	1
						5	1	6
						7	1	8
						14	1	3
						18	1	2
						16	1	11
						18	1	2
						14	1	3
						43	1	1
						28	2	15
						18	2	17
						27	2	19
						18	2	17
						28	2	15
						16	2	12
						32	3	19
						25	3	12
						20	3	17
						25	3	12
						32	3	19
						31	3	15
						43	4	30
						11	4	11
						13	4	31
						11	4	11
						43	4	30
						18	4	3
						19	0	11
						43	0	1
						13	0	2
						43	0	1
						19	0	11
						14	0	3
						20	4	26
						27	4	6
						40	4	24
						27	4	6
						20	4	26
						22	4	18
						26	1	3
						27	1	2
						28	1	11
						27	1	2
						26	1	3
						40	1	1
						26	0	6
						20	0	9
						40	0	8
						20	0	9
						26	0	6
						25	0	18
						30	5	33
						41	5	25
						35	5	27
						41	5	25
						30	5	33
						32	5	23
						31	2	13
						41	2	19
						32	2	20
						41	2	19
						31	2	13
						38	2	15
						36	1	18
						41	1	8
						38	1	6
						41	1	8
						36	1	18
						35	1	9
						1	4	29
						7	4	32
						2	4	34
						7	4	32
						1	4	29
						42	4	28
						9	2	12
						7	2	2
						42	2	17
						7	2	2
						9	2	12
						5	2	11
						1	3	20
						9	3	15
						42	3	19
						9	3	15
						1	3	20
						3	3	13
					</p>
				</triangles>
			</mesh>
		</geometry>
		<geometry id="geometries_1">												
			<mesh>
				<source id="geometries_1-Pos">											
					<float_array id="geometries_1-Pos-array" count="84">				
						2.5 0.2 -12.5
						0.0 0.2 -15.0
						0.0 0.2 -12.5
						2.5 0.2 -15.0
						15.0 0.2 -12.5
						12.5 0.2 -15.0
						12.5 0.2 -12.5
						15.0 0.2 -15.0
						15.0 0.2 -0.0
						12.5 0.2 -2.5
						12.5 0.2 -0.0
						15.0 0.2 -2.5
						2.5 0.2 -0.0
						0.0 0.2 -2.5
						0.0 0.2 -0.0
						2.5 0.2 -2.5
						15.0 0.0 -2.5
						12.5 0.0 -12.5
						12.5 0.0 -2.5
						15.0 0.0 -12.5
						12.5 0.0 -0.0
						2.5 0.0 -2.5
						2.5 0.0 -0.0
						2.5 0.0 -12.5
						2.5 0.0 -15.0
						12.5 0.0 -15.0
						0.0 0.0 -12.5
						0.0 0.0 -2.5
					</float_array>
					<technique_common>
						<accessor source="#geometries_1-Pos-array" count="28" stride="3"> 	
							<param name="X" type="float"/>
							<param name="Y" type="float"/>
							<param name="Z" type="float"/>
						</accessor>
					</technique_common>
				</source>
				<source id="geometries_1-Normal">									
					<float_array id="geometries_1-Normal-array" count="3">			
						0.000000 0.000000 0.025400
					</float_array>
					<technique_common>
						<accessor source="#geometries_1-Normal-array" count="1" stride="3">	
							<param name="X" type="float"/>
							<param name="Y" type="float"/>
							<param name="Z" type="float"/>
						</accessor>
					</technique_common>
				</source>
				<source id="geometries_1-Texture_Projection">
					<float_array id="geometries_1-Texture_Projection-array" count="32">
						0.166667 0.833333
						0.000000 1.000000
						0.000000 0.833333
						0.166667 1.000000
						1.000000 0.833333
						0.833333 1.000000
						0.833333 0.833333
						1.000000 1.000000
						1.000000 0.000000
						0.833333 0.166667
						0.833333 0.000000
						1.000000 0.166667
						0.166667 0.000000
						0.000000 0.166667
						0.000000 0.000000
						0.166667 0.166667
					</float_array>
					<technique_common>
						<accessor source="#geometries_1-Texture_Projection-array" count="16" stride="2">
							<param name="S" type="float"/>
							<param name="T" type="float"/>
						</accessor>
					</technique_common>
				</source>
				<vertices id="geometries_1-Vtx">										
					<input semantic="POSITION" source="#geometries_1-Pos"/>				
				</vertices>
				<triangles count="16" material="segment-cross-2-VZdue">		
					<input semantic="VERTEX" source="#geometries_1-Vtx" offset="0"/>
					<input semantic="NORMAL" source="#geometries_1-Normal" offset="1"/>	
					<input semantic="TEXCOORD" source="#geometries_1-Texture_Projection" offset="2"/>
					<p>
						0	0	0
						1	0	1
						2	0	2
						1	0	1
						0	0	0
						3	0	3
						4	0	4
						5	0	5
						6	0	6
						5	0	5
						4	0	4
						7	0	7
						8	0	8
						9	0	9
						10	0	10
						9	0	9
						8	0	8
						11	0	11
						12	0	12
						13	0	13
						14	0	14
						13	0	13
						12	0	12
						15	0	15
						16	0	11
						17	0	6
						18	0	9
						17	0	6
						16	0	11
						19	0	4
						20	0	10
						21	0	15
						22	0	12
						21	0	15
						20	0	10
						23	0	0
						23	0	0
						20	0	10
						24	0	3
						24	0	3
						20	0	10
						25	0	5
						21	0	15
						26	0	2
						27	0	13
						26	0	2
						21	0	15
						23	0	0
					</p>
				</triangles>
			</mesh>
		</geometry>
	</library_geometries>
	<library_visual_scenes>
		<visual_scene id="visual_scenes_0" name="untitled">
			<node id="UnityExportNode_segment-cross">					
				<translate sid="translation">0.000000 0.000000 0.000000</translate>
				<rotate sid="rotation_z">0.000000 0.000000 1.000000 0.000000</rotate>
				<rotate sid="rotation_y">0.000000 1.000000 0.000000 0.000000</rotate>
				<rotate sid="rotation_x">1.000000 0.000000 0.000000 0.000000</rotate>
				<scale sid="scale">1.000000 1.000000 1.000000</scale>
							<node id="mesh0%root%0%">													
								<translate sid="translation">0 0 0</translate><rotate>0 0 0 0</rotate><scale sid="scale">1.000000 1.000000 1.000000</scale>
								<instance_geometry url="#geometries_0">
									<bind_material>
										<technique_common>
											<instance_material symbol="segment-cross-1-concrete" target="#segment-cross-1-concrete"> 




												<bind semantic="diffuse_TEXCOORD" target="geometries_0-"></bind>
											</instance_material>	
										</technique_common>
									</bind_material>
								</instance_geometry>
							<node id="mesh0%root%1%">													
								<translate sid="translation">0 0 0</translate><rotate>0 0 0 0</rotate><scale sid="scale">1.000000 1.000000 1.000000</scale>
								<instance_geometry url="#geometries_1">
									<bind_material>
										<technique_common>
											<instance_material symbol="segment-cross-2-VZdue" target="#segment-cross-2-VZdue"> 




												<bind semantic="diffuse_TEXCOORD" target="geometries_1-"></bind>
											</instance_material>	
										</technique_common>
									</bind_material>
								</instance_geometry>
				</node>
				</node>
			</node>
		</visual_scene>
	</library_visual_scenes>
	<scene>
		<instance_visual_scene url="#visual_scenes_0"/>
	</scene>
</COLLADA>
